{
  "coc.preferences.formatOnType": true,
  "coc.preferences.formatOnSaveFiletypes": [
    "javascript",
    "javascriptreact",
    "typescript", 
    "typescriptreact", 
    "css", 
    "markdown"
  ],

  "tsserver.formatOnType": true,

  "explorer.width": 30,
  "explorer.file.showHiddenFiles": true,
  "explorer.icon.enableNerdfont": true,
  "explorer.previewAction.onHover": false,
  "explorer.keyMappings.global": {
    "<cr>": ["expandable?", "expand", "open"],
    "v": "open:vsplit"
  }
}
